…
words_trans
```

    ## # A tibble: 980 × 2
    ##    English  `Go Loco`      
    ##    <chr>    <chr>          
    ##  1 a        <NA>           
    ##  2 able     leababaloco    
    ##  3 about    outababaloco   
    ##  4 absolute soluteababaloco
    ##  5 accept   ceptacacaloco  
    ##  6 account  countacacaloco 
    ##  7 achieve  hieveacacaloco 
    ##  8 across   rossacacaloco  
    ##  9 act      tacacaloco     
    ## 10 active   tiveacacaloco  
    ## # ℹ 970 more rows
…
